{"current_page":1,"data":[{"id":1,"user_id":2,"category_id":1,"title":"Qui nulla explicabo debitis quia.","slug":"qui-nulla-explicabo-debitis-quia","body":"<html><head><title>Dolorem aspernatur animi itaque voluptatem.<\/title><\/head><body><form action=\"example.net\" method=\"POST\"><label for=\"username\">eveniet<\/label><input type=\"text\" id=\"username\"><label for=\"password\">enim<\/label><input type=\"password\" id=\"password\"><\/form><div class=\"nemo\">Eligendi recusandae aut cum vel et qui eum magnam.Amet placeat sed id aut.<\/div><div class=\"odit\"><table><thead><tr><th>Magni quia qui assumenda.<\/th><th>Dolorem tempora consectetur.<\/th><\/tr><\/thead><tbody><tr><td>Aut neque nesciunt reiciendis.<\/td><td>Et nesciunt non adipisci et necessitatibus tempore qui exercitationem dignissimos officia.<\/td><\/tr><tr><td>Quos porro ab culpa atque recusandae.<\/td><td>Est animi neque dolores nisi facere corrupti.<\/td><\/tr><tr><td>Assumenda qui ut error et ut quidem adipisci.<\/td><td>Ratione ea quaerat voluptate.<\/td><\/tr><tr><td>Nulla laborum optio.<\/td><td>Nostrum est incidunt totam.<\/td><\/tr><\/tbody><\/table><span>Tenetur et omnis aliquam natus dolorem minus ducimus nostrum velit soluta.<\/span><table><thead><tr><th>Laudantium occaecati ut molestiae.<\/th><\/tr><\/thead><tbody><tr><td>Officia minima porro aut.<\/td><\/tr><tr><td>Et voluptas iure.<\/td><\/tr><tr><td>Consequatur nulla deserunt quo qui sed accusamus corrupti iusto porro ullam.<\/td><\/tr><tr><td>Est esse sit voluptas dolorem aut omnis at dolorem ut.<\/td><\/tr><tr><td>Magnam ipsum praesentium natus modi ea non tempore.<\/td><\/tr><tr><td>Magni deleniti rerum.<\/td><\/tr><\/tbody><\/table>Suscipit et blanditiis sit.<\/div><div id=\"58350\"><h2>Natus quod assumenda est nihil qui et corporis nisi autem.<\/h2><ul><li>Nobis voluptatem.<\/li><li>Numquam hic vitae.<\/li><\/ul>Amet ut eligendi repudiandae.<\/div><div class=\"sit\"><b>Sit ut vel quam aut sint illo est ducimus porro consequatur.<\/b><\/div><\/body><\/html>\n","img":"4.jpg","created_at":"2020-09-11T14:39:32.000000Z","updated_at":"2020-09-11T14:39:32.000000Z","updated":"11 Sep 2020"},{"id":2,"user_id":3,"category_id":1,"title":"Veritatis sed sunt tempora odio dignissimos ut enim ea.","slug":"veritatis-sed-sunt-tempora-odio-dignissimos-ut-enim-ea","body":"<html><head><title>Ad eligendi architecto quas voluptate.<\/title><\/head><body><form action=\"example.net\" method=\"POST\"><label for=\"username\">et<\/label><input type=\"text\" id=\"username\"><label for=\"password\">sit<\/label><input type=\"password\" id=\"password\"><\/form><div id=\"42469\"><b>Sit iure qui et.<\/b><table><thead><tr><th>Accusamus perferendis quasi incidunt voluptatem.<\/th><th>Magni omnis ipsum.<\/th><th>Quidem consequuntur.<\/th><th>Laudantium autem.<\/th><\/tr><\/thead><tbody><tr><td>Modi impedit ullam minus rerum et suscipit dolores asperiores consectetur odio.<\/td><td>Sunt quae vel voluptatem ipsa.<\/td><td>Et officiis.<\/td><td>Quas et et repellat autem corporis vel nesciunt consequatur.<\/td><\/tr><tr><td>Alias ullam fuga.<\/td><td>Nesciunt.<\/td><td>Et laborum labore.<\/td><td>Tempore dolor eaque non at dolore.<\/td><\/tr><\/tbody><\/table><ul><li>Sit quas maxime deserunt et.<\/li><li>Repellendus iure numquam numquam quis.<\/li><li>Consequatur voluptas.<\/li><li>Ut tenetur omnis.<\/li><li>Quisquam quia laboriosam.<\/li><li>Repellat quis.<\/li><li>Consequatur aliquam soluta et ut.<\/li><li>Nam ut quibusdam.<\/li><li>Reprehenderit quo veritatis cupiditate dolores.<\/li><li>Voluptas temporibus.<\/li><li>Atque quis numquam.<\/li><\/ul><\/div><div class=\"et\"><div class=\"nobis\"><p>Voluptas veniam assumenda illo eos magnam amet.<\/p><h3>Nesciunt quia omnis consequatur tempore provident perferendis aut.<\/h3><b>Est earum blanditiis eos esse ab itaque doloremque nostrum rerum.<\/b><\/div><div class=\"et\"><\/div><div class=\"quam\"><\/div><\/div><div class=\"veritatis\">Cum et odio sit ratione.<\/div><div class=\"ut\"><\/div><\/body><\/html>\n","img":"6.jpg","created_at":"2020-09-11T14:39:32.000000Z","updated_at":"2020-09-11T14:39:32.000000Z","updated":"11 Sep 2020"},{"id":3,"user_id":4,"category_id":1,"title":"Eaque laudantium voluptates quia rerum.","slug":"eaque-laudantium-voluptates-quia-rerum","body":"<html><head><title>Pariatur quas.<\/title><\/head><body><form action=\"example.net\" method=\"POST\"><label for=\"username\">labore<\/label><input type=\"text\" id=\"username\"><label for=\"password\">et<\/label><input type=\"password\" id=\"password\"><\/form><div class=\"ut\"><b>Quis laudantium.<\/b>Omnis quod ea.Ad molestiae sint recusandae est quos.<a href=\"example.com\">Non harum est.<\/a><\/div><div class=\"recusandae\"><ul><li>Pariatur.<\/li><li>Consequuntur ratione.<\/li><\/ul><h2>Et sunt ut et illo animi non.<\/h2><b>Rerum sint sit voluptatem aut asperiores repudiandae.<\/b><a href=\"example.net\">Perspiciatis dolores sit amet consectetur odio ab dignissimos sit odio fugiat nihil.<\/a><\/div><div id=\"81176\"><div id=\"17897\"><table><thead><tr><th>Tempore velit temporibus et.<\/th><th>Occaecati.<\/th><th>Magni quibusdam est.<\/th><th>Voluptatibus voluptatem quas.<\/th><th>Voluptates ducimus mollitia assumenda.<\/th><th>Eum quas ea.<\/th><\/tr><\/thead><tbody><tr><td>Vitae amet tempora ea quidem voluptatem.<\/td><td>Delectus rerum quibusdam ut.<\/td><td>Officiis molestias assumenda officiis qui nemo.<\/td><td>Et aut eaque velit autem esse deserunt consequatur commodi.<\/td><td>Magnam incidunt fugiat dolore ut sit.<\/td><td>Rerum rerum blanditiis est blanditiis nostrum rerum.<\/td><\/tr><tr><td>Sit qui perspiciatis voluptas omnis.<\/td><td>Sint quo est et.<\/td><td>Vel recusandae cupiditate.<\/td><td>Eos sequi quis excepturi eligendi aspernatur qui et est incidunt excepturi.<\/td><td>Sapiente nihil.<\/td><td>Hic et rem dolor qui ipsa quo optio.<\/td><\/tr><tr><td>Officiis tempora totam quasi et qui similique repellendus id.<\/td><td>Doloribus rerum labore quibusdam laboriosam quis veniam cum voluptas ut qui.<\/td><td>Dolorem necessitatibus ut a aut ipsam quia odit.<\/td><td>Quis officiis enim alias illo vel eaque.<\/td><td>Magni magni minus labore omnis voluptate aspernatur voluptatem.<\/td><td>Ut.<\/td><\/tr><tr><td>Cumque aperiam rerum corporis debitis ipsam ut.<\/td><td>Rerum.<\/td><td>Et magnam recusandae doloremque necessitatibus nisi et.<\/td><td>Voluptas perspiciatis blanditiis eveniet.<\/td><td>Saepe et sint aut perspiciatis eveniet laudantium eligendi placeat ut cumque qui ut.<\/td><td>Laudantium tempora est.<\/td><\/tr><\/tbody><\/table><\/div><\/div><\/body><\/html>\n","img":"1.png","created_at":"2020-09-11T14:39:32.000000Z","updated_at":"2020-09-11T14:39:32.000000Z","updated":"11 Sep 2020"},{"id":4,"user_id":5,"category_id":1,"title":"Nulla qui animi qui tempora.","slug":"nulla-qui-animi-qui-tempora","body":"<html><head><title>Ab provident similique officiis sed velit iste.<\/title><\/head><body><form action=\"example.org\" method=\"POST\"><label for=\"username\">qui<\/label><input type=\"text\" id=\"username\"><label for=\"password\">neque<\/label><input type=\"password\" id=\"password\"><\/form><div class=\"et\"><div id=\"59871\"><\/div><div id=\"19737\"><\/div><div id=\"4553\"><\/div><div id=\"74173\"><\/div><\/div><div id=\"75735\"><\/div><div class=\"eum\"><\/div><div id=\"49962\">Quo exercitationem libero dolorem doloremque odit reiciendis aut ea sed totam.<\/div><\/body><\/html>\n","img":"2.jpg","created_at":"2020-09-11T14:39:32.000000Z","updated_at":"2020-09-11T14:39:32.000000Z","updated":"11 Sep 2020"},{"id":5,"user_id":6,"category_id":1,"title":"Id consequatur sapiente laboriosam fuga.","slug":"id-consequatur-sapiente-laboriosam-fuga","body":"<html><head><title>Omnis magnam.<\/title><\/head><body><form action=\"example.com\" method=\"POST\"><label for=\"username\">quis<\/label><input type=\"text\" id=\"username\"><label for=\"password\">quae<\/label><input type=\"password\" id=\"password\"><\/form><div id=\"14100\"><\/div><div class=\"incidunt\"><div id=\"77365\"><h1>Non natus nisi aut.<\/h1><b>Vero ut dignissimos eius molestias quos.<\/b><\/div><div class=\"eum\"><\/div><\/div><div class=\"eum\"><div id=\"16257\"><\/div><div id=\"69570\"><\/div><\/div><\/body><\/html>\n","img":"3.jpg","created_at":"2020-09-11T14:39:32.000000Z","updated_at":"2020-09-11T14:39:32.000000Z","updated":"11 Sep 2020"},{"id":6,"user_id":7,"category_id":1,"title":"Doloremque deserunt architecto cum qui.","slug":"doloremque-deserunt-architecto-cum-qui","body":"<html><head><title>Consequatur iste est odit ipsa sint voluptates.<\/title><\/head><body><form action=\"example.com\" method=\"POST\"><label for=\"username\">ea<\/label><input type=\"text\" id=\"username\"><label for=\"password\">itaque<\/label><input type=\"password\" id=\"password\"><\/form><div class=\"accusantium\"><div class=\"ad\"><\/div><div id=\"26848\"><a href=\"example.org\">Deleniti.<\/a><h3>Quis laboriosam corporis vitae dolor quisquam delectus sit quod eius aut architecto dolor minus.<\/h3><ul><li>Voluptates ipsam est et enim.<\/li><li>Numquam nulla fugiat.<\/li><li>Nemo error sint dignissimos.<\/li><li>Excepturi.<\/li><li>Eaque qui qui corrupti.<\/li><li>Assumenda nulla repellat.<\/li><li>Omnis et omnis qui.<\/li><li>Et eos voluptatibus est aut.<\/li><li>Numquam quod asperiores quis.<\/li><li>Quos in veniam.<\/li><li>Ea fuga corrupti.<\/li><\/ul><\/div><div id=\"22965\"><p>Molestiae ducimus.<\/p><table><thead><tr><th>Voluptas dolor recusandae.<\/th><th>Voluptatem sunt vel.<\/th><th>Quas assumenda excepturi voluptate fugiat.<\/th><\/tr><\/thead><tbody><tr><td>Est omnis qui quibusdam exercitationem sint sit porro.<\/td><td>Ut aliquid dolor.<\/td><td>Beatae error eum magnam porro.<\/td><\/tr><tr><td>Labore nam.<\/td><td>Dolorem numquam quia magni sint.<\/td><td>Quod quibusdam dolore mollitia.<\/td><\/tr><tr><td>Pariatur minima ex dicta atque quo.<\/td><td>Excepturi ratione qui sunt et libero reiciendis.<\/td><td>Suscipit sit velit.<\/td><\/tr><tr><td>Dignissimos ut et dolore voluptatem esse.<\/td><td>Est odit.<\/td><td>Et quia qui voluptas dolores in sed dolore nisi ipsa doloribus porro.<\/td><\/tr><tr><td>Distinctio.<\/td><td>Aut repudiandae voluptatem numquam pariatur aut repellat.<\/td><td>Velit sed atque quia laudantium.<\/td><\/tr><tr><td>Consequuntur dolor eius magnam recusandae voluptates totam.<\/td><td>Consectetur est et omnis eligendi.<\/td><td>Sint aliquam quo placeat nobis minima consequatur impedit.<\/td><\/tr><tr><td>Et officia quaerat veniam.<\/td><td>Quisquam impedit illo aut rerum.<\/td><td>Ipsum tenetur quis facilis dolores pariatur eligendi est sequi.<\/td><\/tr><\/tbody><\/table><i>Et.<\/i><\/div><\/div><div class=\"nam\"><\/div><div class=\"aut\"><\/div><\/body><\/html>\n","img":"4.jpg","created_at":"2020-09-11T14:39:32.000000Z","updated_at":"2020-09-11T14:39:32.000000Z","updated":"11 Sep 2020"},{"id":7,"user_id":8,"category_id":1,"title":"Qui laboriosam id eaque ducimus laborum harum dolor et.","slug":"qui-laboriosam-id-eaque-ducimus-laborum-harum-dolor-et","body":"<html><head><title>Voluptates dicta sunt aut.<\/title><\/head><body><form action=\"example.net\" method=\"POST\"><label for=\"username\">sit<\/label><input type=\"text\" id=\"username\"><label for=\"password\">sed<\/label><input type=\"password\" id=\"password\"><\/form><div class=\"dolor\"><b>Et ipsam aut temporibus aliquam dolore impedit animi dolores.<\/b><b>Quia a vero eius sit nam tenetur velit ut ut at.<\/b><p>Rem et aliquam qui sit et perspiciatis voluptas sint corrupti sequi qui esse ut.<\/p><\/div><div id=\"40226\"><\/div><div id=\"29812\"><div id=\"73189\"><\/div><div id=\"21236\"><\/div><div class=\"ullam\"><p>Qui enim nesciunt modi.<\/p><a href=\"example.com\">Delectus aliquam neque vel ratione dolorem laborum officiis.<\/a><h3>Ratione iste minus est ea voluptatibus ut omnis.<\/h3><table><thead><tr><th>Quam deserunt voluptas suscipit fugit.<\/th><th>Amet et nam.<\/th><th>In provident quaerat adipisci.<\/th><th>Aut occaecati nostrum.<\/th><th>Quia molestiae itaque minus.<\/th><\/tr><\/thead><tbody><tr><td>Quam eum animi non sunt repellat nihil.<\/td><td>Eum a.<\/td><td>Consequatur voluptas repellat dolores consectetur ratione ea.<\/td><td>Eveniet occaecati eum rerum veniam suscipit numquam aperiam.<\/td><td>Praesentium et vel occaecati autem iure quisquam quia ullam ad in ut necessitatibus.<\/td><\/tr><tr><td>Consequatur dignissimos labore eligendi sunt sit nisi.<\/td><td>Voluptatem in ipsam nisi.<\/td><td>Perspiciatis non esse nostrum necessitatibus dolorem voluptatum.<\/td><td>Consequatur veniam aut iste.<\/td><td>Error numquam enim.<\/td><\/tr><tr><td>Rerum aliquid et odit consequatur nisi veritatis est.<\/td><td>Voluptatem iste nemo ut odit dolor laborum pariatur ex.<\/td><td>Incidunt quia magni quas quibusdam dolorem odio molestiae quis ducimus est.<\/td><td>Doloremque dolor vel minus aut ut commodi adipisci minima dolores illo.<\/td><td>Quidem qui non.<\/td><\/tr><tr><td>Nulla et nulla enim provident facere.<\/td><td>Eius quia sint cupiditate nostrum numquam quis voluptatem sunt aut iure qui.<\/td><td>Voluptatem sed a nam non rem similique.<\/td><td>Voluptates numquam quis non aut quaerat.<\/td><td>Ducimus vero.<\/td><\/tr><tr><td>Maiores consequuntur magnam beatae voluptates qui sapiente est.<\/td><td>Cupiditate quam amet praesentium aut recusandae ducimus quia eum.<\/td><td>Repudiandae quia quae asperiores assumenda voluptate esse architecto unde eos optio similique.<\/td><td>Quod.<\/td><td>Sint amet.<\/td><\/tr><tr><td>Maiores nostrum est architecto facere eum minus est voluptatem eveniet.<\/td><td>Officiis mollitia ut sed dolores deleniti.<\/td><td>Enim ut vitae dignissimos vel non hic reiciendis et.<\/td><td>Rem laudantium omnis.<\/td><td>Eos et pariatur quae rerum accusantium.<\/td><\/tr><tr><td>Quod id dolor ut.<\/td><td>Id eos.<\/td><td>Reprehenderit et cupiditate.<\/td><td>Rerum qui ab dolorem.<\/td><td>Eaque ad omnis facilis et odit odit ducimus blanditiis repudiandae consequuntur saepe rerum aliquid.<\/td><\/tr><tr><td>Enim odit laborum deleniti qui error illo sit.<\/td><td>Consectetur tenetur magni quas.<\/td><td>Impedit sunt molestiae.<\/td><td>Numquam veritatis quasi beatae cupiditate et fugit excepturi facere qui.<\/td><td>Aut nemo vero optio dicta.<\/td><\/tr><tr><td>Itaque accusantium molestias reprehenderit.<\/td><td>Error perspiciatis est laudantium aspernatur eum non.<\/td><td>Dolorem aut vitae laborum placeat voluptatem harum fugit voluptatum deserunt fugit dolorem vitae.<\/td><td>Quo in voluptatem sunt earum eum iste.<\/td><td>Libero.<\/td><\/tr><tr><td>Eos veniam ut ipsum exercitationem omnis quia dolorem sequi dolores.<\/td><td>Quidem maxime ut eaque voluptas.<\/td><td>Velit maxime.<\/td><td>Aliquam laboriosam et fugiat fugiat sit doloribus neque aut quidem corrupti est natus sint.<\/td><td>Animi adipisci aut sit.<\/td><\/tr><\/tbody><\/table><\/div><div class=\"quo\"><\/div><\/div><div id=\"90177\"><\/div><\/body><\/html>\n","img":"1.png","created_at":"2020-09-11T14:39:32.000000Z","updated_at":"2020-09-11T14:39:32.000000Z","updated":"11 Sep 2020"},{"id":8,"user_id":9,"category_id":1,"title":"Cumque eligendi nobis qui repudiandae suscipit autem ipsam.","slug":"cumque-eligendi-nobis-qui-repudiandae-suscipit-autem-ipsam","body":"<html><head><title>Expedita non consequatur sed qui sapiente officiis.<\/title><\/head><body><form action=\"example.net\" method=\"POST\"><label for=\"username\">cumque<\/label><input type=\"text\" id=\"username\"><label for=\"password\">explicabo<\/label><input type=\"password\" id=\"password\"><\/form><div class=\"qui\"><\/div><div id=\"28284\"><div id=\"79473\"><span>Vel necessitatibus repellat.<\/span>Quas error vel porro reprehenderit amet et sapiente.<\/div><\/div><div class=\"quis\"><b>Temporibus hic culpa nobis modi qui et et deserunt et.<\/b><\/div><\/body><\/html>\n","img":"6.jpg","created_at":"2020-09-11T14:39:32.000000Z","updated_at":"2020-09-11T14:39:32.000000Z","updated":"11 Sep 2020"},{"id":9,"user_id":10,"category_id":1,"title":"Impedit iure et recusandae quasi voluptas.","slug":"impedit-iure-et-recusandae-quasi-voluptas","body":"<html><head><title>Quod omnis maiores minus eveniet eius nihil voluptatum optio eligendi delectus voluptatem.<\/title><\/head><body><form action=\"example.org\" method=\"POST\"><label for=\"username\">nemo<\/label><input type=\"text\" id=\"username\"><label for=\"password\">libero<\/label><input type=\"password\" id=\"password\"><\/form><div class=\"soluta\"><div id=\"96432\"><\/div><div class=\"officiis\"><\/div><div id=\"7292\"><a href=\"example.net\">Voluptas.<\/a><p>Harum quia in.<\/p><h2>Iure consequatur veritatis eum ipsa delectus soluta voluptas rerum aperiam odit.<\/h2><\/div><\/div><div id=\"38602\"><\/div><div id=\"6364\"><\/div><div id=\"47047\"><\/div><\/body><\/html>\n","img":"4.jpg","created_at":"2020-09-11T14:39:32.000000Z","updated_at":"2020-09-11T14:39:32.000000Z","updated":"11 Sep 2020"},{"id":10,"user_id":11,"category_id":1,"title":"Neque aut ut dicta dolores accusamus.","slug":"neque-aut-ut-dicta-dolores-accusamus","body":"<html><head><title>Nihil doloribus aut minima aut atque aut eaque modi.<\/title><\/head><body><form action=\"example.net\" method=\"POST\"><label for=\"username\">non<\/label><input type=\"text\" id=\"username\"><label for=\"password\">distinctio<\/label><input type=\"password\" id=\"password\"><\/form><div id=\"40128\"><\/div><div id=\"91044\"><div class=\"consequuntur\"><ul><li>Quam similique.<\/li><li>Illo ad dolorum.<\/li><li>Deserunt et voluptate.<\/li><li>Officiis beatae corporis.<\/li><li>Voluptatibus non eum sunt.<\/li><li>Accusamus delectus necessitatibus maxime.<\/li><li>Deserunt laboriosam.<\/li><\/ul>Omnis rerum animi quidem optio aut.<\/div><div class=\"non\"><\/div><\/div><div class=\"ea\"><\/div><div class=\"incidunt\"><span>Debitis quaerat sint.<\/span><h2>Est cumque accusantium quia sequi aliquam minima.<\/h2><span>Cum itaque cupiditate.<\/span><i>Molestiae earum non et excepturi.<\/i><\/div><\/body><\/html>\n","img":"5.png","created_at":"2020-09-11T14:39:32.000000Z","updated_at":"2020-09-11T14:39:32.000000Z","updated":"11 Sep 2020"},{"id":11,"user_id":12,"category_id":1,"title":"Natus labore quisquam voluptatibus.","slug":"natus-labore-quisquam-voluptatibus","body":"<html><head><title>Recusandae sint voluptates.<\/title><\/head><body><form action=\"example.com\" method=\"POST\"><label for=\"username\">non<\/label><input type=\"text\" id=\"username\"><label for=\"password\">blanditiis<\/label><input type=\"password\" id=\"password\"><\/form><div id=\"54741\"><div id=\"78573\"><h3>Dignissimos vel possimus aut.<\/h3><i>Sit voluptatem quae quia cupiditate voluptatibus.<\/i><ul><li>Repellendus in quas soluta minima.<\/li><li>Architecto quidem aliquam quidem.<\/li><li>Odit vitae et.<\/li><\/ul><b>Accusantium provident dolore dolorum nesciunt aliquam ipsum saepe sapiente esse.<\/b><\/div><\/div><\/body><\/html>\n","img":"5.png","created_at":"2020-09-11T14:39:32.000000Z","updated_at":"2020-09-11T14:39:32.000000Z","updated":"11 Sep 2020"},{"id":12,"user_id":13,"category_id":1,"title":"Inventore quos ut omnis laborum ratione quis.","slug":"inventore-quos-ut-omnis-laborum-ratione-quis","body":"<html><head><title>Quisquam incidunt voluptas qui.<\/title><\/head><body><form action=\"example.net\" method=\"POST\"><label for=\"username\">quod<\/label><input type=\"text\" id=\"username\"><label for=\"password\">nisi<\/label><input type=\"password\" id=\"password\"><\/form><div id=\"34867\"><div id=\"70358\"><\/div><div class=\"ipsam\">Impedit ducimus recusandae.<\/div><div class=\"facere\"><\/div><div id=\"285\"><i>Laboriosam dolorem.<\/i><b>Ut aliquam quas temporibus voluptas.<\/b><\/div><\/div><div id=\"86199\"><div class=\"laborum\"><span>Corporis unde voluptatem explicabo architecto dignissimos.<\/span>Non non quasi quas fugiat quia impedit.<i>Doloremque magnam.<\/i><\/div><div class=\"ut\"><i>Accusamus omnis ut dicta quia ex.<\/i>Qui minima architecto dolorem corporis.<i>Sit reprehenderit rerum incidunt velit et.<\/i>Est expedita eligendi.<\/div><div id=\"51861\"><\/div><div id=\"63822\"><\/div><\/div><\/body><\/html>\n","img":"5.png","created_at":"2020-09-11T14:39:32.000000Z","updated_at":"2020-09-11T14:39:32.000000Z","updated":"11 Sep 2020"},{"id":13,"user_id":14,"category_id":2,"title":"Qui dolorum eaque repellat quia minus officia quidem.","slug":"qui-dolorum-eaque-repellat-quia-minus-officia-quidem","body":"<html><head><title>Ea impedit ut facilis assumenda veritatis.<\/title><\/head><body><form action=\"example.com\" method=\"POST\"><label for=\"username\">consequatur<\/label><input type=\"text\" id=\"username\"><label for=\"password\">dicta<\/label><input type=\"password\" id=\"password\"><\/form><div id=\"51410\"><\/div><div id=\"72799\"><table><thead><tr><th>Cum odio odit.<\/th><th>Natus hic.<\/th><th>Nulla voluptatem ut sint explicabo.<\/th><\/tr><\/thead><tbody><tr><td>Voluptatem dolorem repudiandae quaerat dolorum dolorem voluptatem maxime.<\/td><td>Natus alias cumque magnam maxime.<\/td><td>Et quae quasi ut et quis laborum harum atque cum.<\/td><\/tr><tr><td>Hic nemo itaque non optio ut et.<\/td><td>Natus ad hic non asperiores sit ipsam et sit assumenda.<\/td><td>Unde id voluptate.<\/td><\/tr><tr><td>Nobis aut quasi est adipisci aliquam.<\/td><td>Fugiat facilis occaecati et vel.<\/td><td>Dignissimos dolorem aut repellat et.<\/td><\/tr><tr><td>Accusantium distinctio recusandae quo autem et quo omnis eligendi nobis.<\/td><td>Expedita rerum cumque atque asperiores et iure velit aliquam nostrum aut est.<\/td><td>Autem cupiditate maxime.<\/td><\/tr><tr><td>Illum aspernatur impedit aut sunt eveniet omnis perferendis id exercitationem natus.<\/td><td>Dicta molestias animi.<\/td><td>Soluta consequatur facere rerum quo.<\/td><\/tr><tr><td>Qui saepe non similique maxime exercitationem optio ab deserunt veniam qui rerum.<\/td><td>Aut saepe alias.<\/td><td>Architecto a nihil sint enim error.<\/td><\/tr><tr><td>Molestias earum aperiam esse voluptate dolor.<\/td><td>Voluptas laboriosam omnis aut ut omnis labore reprehenderit non.<\/td><td>Ea tempora et dolores maiores voluptas quia.<\/td><\/tr><\/tbody><\/table><ul><li>Dolore.<\/li><li>Delectus.<\/li><li>Pariatur fuga dolorem corporis doloremque dicta.<\/li><\/ul>Corrupti non in qui dolorem eius ipsa rerum et quo velit possimus fuga.<i>Minima dolores distinctio et et neque repudiandae.<\/i><\/div><div class=\"ex\"><div class=\"accusamus\"><a href=\"example.org\">Quia est velit magni error saepe in cupiditate aut.<\/a><\/div><\/div><div class=\"quod\"><div id=\"84005\"><b>Similique sint enim sed in dolore.<\/b><p>Qui.<\/p>Placeat corrupti incidunt magni rerum dignissimos tempore esse odit eveniet quae et natus est.<\/div><\/div><\/body><\/html>\n","img":"4.jpg","created_at":"2020-09-11T14:39:32.000000Z","updated_at":"2020-09-11T14:39:32.000000Z","updated":"11 Sep 2020"},{"id":14,"user_id":15,"category_id":2,"title":"Molestias quo dignissimos voluptatem blanditiis deleniti molestiae.","slug":"molestias-quo-dignissimos-voluptatem-blanditiis-deleniti-molestiae","body":"<html><head><title>Est in cupiditate labore qui voluptatem exercitationem porro est.<\/title><\/head><body><form action=\"example.net\" method=\"POST\"><label for=\"username\">aspernatur<\/label><input type=\"text\" id=\"username\"><label for=\"password\">ea<\/label><input type=\"password\" id=\"password\"><\/form><div id=\"6306\">Expedita odit aliquam repudiandae sint tempora.<\/div><\/body><\/html>\n","img":"5.png","created_at":"2020-09-11T14:39:32.000000Z","updated_at":"2020-09-11T14:39:32.000000Z","updated":"11 Sep 2020"},{"id":15,"user_id":16,"category_id":2,"title":"Quisquam et ipsum reprehenderit ad.","slug":"quisquam-et-ipsum-reprehenderit-ad","body":"<html><head><title>Quasi id.<\/title><\/head><body><form action=\"example.org\" method=\"POST\"><label for=\"username\">modi<\/label><input type=\"text\" id=\"username\"><label for=\"password\">reiciendis<\/label><input type=\"password\" id=\"password\"><\/form><div id=\"36668\"><\/div><div class=\"commodi\"><\/div><div id=\"491\"><\/div><\/body><\/html>\n","img":"3.jpg","created_at":"2020-09-11T14:39:32.000000Z","updated_at":"2020-09-11T14:39:32.000000Z","updated":"11 Sep 2020"}],"first_page_url":"http:\/\/localhost?page=1","from":1,"last_page":4,"last_page_url":"http:\/\/localhost?page=4","next_page_url":"http:\/\/localhost?page=2","path":"http:\/\/localhost","per_page":15,"prev_page_url":null,"to":15,"total":51}