{"current_page":2,"data":[{"id":16,"user_id":17,"category_id":2,"title":"Ullam mollitia magni et vero molestiae.","slug":"ullam-mollitia-magni-et-vero-molestiae","body":"<html><head><title>Soluta illo.<\/title><\/head><body><form action=\"example.com\" method=\"POST\"><label for=\"username\">suscipit<\/label><input type=\"text\" id=\"username\"><label for=\"password\">provident<\/label><input type=\"password\" id=\"password\"><\/form><div id=\"60426\"><div id=\"48551\"><\/div><div id=\"42925\"><h2>Impedit aut eos.<\/h2><b>Velit sequi impedit id occaecati nesciunt consequuntur.<\/b><table><thead><tr><th>Rerum sed et maiores.<\/th><th>Omnis eum qui dolorem sit dolores.<\/th><th>Quis saepe magnam.<\/th><th>Ab quae.<\/th><th>Voluptatibus consequatur explicabo.<\/th><\/tr><\/thead><tbody><tr><td>Porro.<\/td><td>Et distinctio rerum a dolore dolorem.<\/td><td>Saepe eveniet velit laborum quasi voluptates consequatur.<\/td><td>Laboriosam quidem.<\/td><td>Assumenda sit incidunt hic quibusdam occaecati.<\/td><\/tr><tr><td>Quasi est veniam.<\/td><td>Et et maxime ipsa.<\/td><td>Exercitationem ut iure occaecati sunt assumenda voluptatem suscipit voluptas itaque.<\/td><td>Cumque impedit ex fugiat accusamus voluptas.<\/td><td>Ex error odio incidunt et exercitationem.<\/td><\/tr><tr><td>Repellat aut molestias minima fugiat non in ut et.<\/td><td>Dolorum pariatur debitis recusandae nihil autem.<\/td><td>Laboriosam dignissimos corporis iure ad sint omnis.<\/td><td>Corporis sint laboriosam neque et id repudiandae.<\/td><td>Qui consequatur.<\/td><\/tr><tr><td>Est quia.<\/td><td>Omnis quia nihil.<\/td><td>Et in.<\/td><td>Non numquam itaque facilis tempora nesciunt quae sed suscipit possimus ratione dignissimos.<\/td><td>At nesciunt libero laudantium.<\/td><\/tr><tr><td>Quod nihil sit et aliquid tenetur dicta sint.<\/td><td>Quam velit sed non.<\/td><td>Quidem magni dolorum repellendus quasi voluptas aut.<\/td><td>Tempore corrupti molestiae magnam corrupti doloremque.<\/td><td>Et sit dolore unde fugiat repellendus aut voluptatem sed est.<\/td><\/tr><tr><td>Non odit aut laboriosam enim molestiae doloremque exercitationem expedita explicabo sit.<\/td><td>Qui omnis corrupti nisi ut dolore dolorum esse perferendis.<\/td><td>Quibusdam dolorem omnis dolor eveniet.<\/td><td>Sed eaque totam dolor vel deleniti quae.<\/td><td>Voluptatum quibusdam.<\/td><\/tr><tr><td>Dolore ut doloribus eligendi dolor.<\/td><td>Aut laudantium dignissimos.<\/td><td>Repellat id reiciendis aut est asperiores nesciunt.<\/td><td>Repellendus numquam nihil incidunt dolores architecto officiis.<\/td><td>Rem quisquam corporis cum repudiandae.<\/td><\/tr><tr><td>Nostrum molestiae qui expedita tempore.<\/td><td>Dolore fugiat neque est.<\/td><td>Explicabo at a laborum veniam tempore voluptatem omnis totam adipisci atque omnis.<\/td><td>Quis ipsa similique repellat ut tenetur nulla aut quasi rem enim eaque.<\/td><td>Fugiat quod nulla sed.<\/td><\/tr><tr><td>Et voluptas repellat qui sunt corrupti.<\/td><td>Distinctio qui nobis culpa asperiores vitae aut harum asperiores.<\/td><td>Sint quas qui consequuntur.<\/td><td>Esse unde nisi fugit earum.<\/td><td>Repudiandae.<\/td><\/tr><\/tbody><\/table><ul><li>Ducimus.<\/li><li>Placeat.<\/li><li>Modi repellat laudantium.<\/li><li>Mollitia repellat.<\/li><li>Iure commodi totam quia.<\/li><li>Autem.<\/li><li>Repellendus alias.<\/li><\/ul><\/div><div id=\"44585\"><b>Ut sit non aliquid ut fugiat voluptatem nobis eligendi perspiciatis nostrum.<\/b><span>Recusandae molestiae voluptatum.<\/span><ul><li>Iure et et.<\/li><li>Voluptatibus facere sed occaecati.<\/li><li>Dolor dolores reprehenderit iste.<\/li><li>Magnam ut assumenda.<\/li><li>Soluta magnam vel dolores.<\/li><li>Est voluptas optio.<\/li><li>Aperiam laborum.<\/li><li>Rerum a quis.<\/li><li>Natus provident inventore corporis.<\/li><\/ul><\/div><\/div><div id=\"4894\"><\/div><div id=\"71824\"><div id=\"48731\"><\/div><\/div><div class=\"veritatis\"><\/div><\/body><\/html>\n","img":"2.jpg","created_at":"2020-09-11T14:39:32.000000Z","updated_at":"2020-09-11T14:39:32.000000Z","updated":"11 Sep 2020"},{"id":17,"user_id":18,"category_id":2,"title":"Porro dicta vel iusto consequatur laudantium voluptatem dolor.","slug":"porro-dicta-vel-iusto-consequatur-laudantium-voluptatem-dolor","body":"<html><head><title>Et hic tempora perspiciatis tempora ut possimus aliquid nobis animi architecto.<\/title><\/head><body><form action=\"example.com\" method=\"POST\"><label for=\"username\">fuga<\/label><input type=\"text\" id=\"username\"><label for=\"password\">ea<\/label><input type=\"password\" id=\"password\"><\/form><div class=\"omnis\"><\/div><div class=\"autem\"><\/div><\/body><\/html>\n","img":"6.jpg","created_at":"2020-09-11T14:39:32.000000Z","updated_at":"2020-09-11T14:39:32.000000Z","updated":"11 Sep 2020"},{"id":18,"user_id":19,"category_id":2,"title":"Quia adipisci minima nulla optio voluptas.","slug":"quia-adipisci-minima-nulla-optio-voluptas","body":"<html><head><title>Error saepe.<\/title><\/head><body><form action=\"example.com\" method=\"POST\"><label for=\"username\">omnis<\/label><input type=\"text\" id=\"username\"><label for=\"password\">voluptas<\/label><input type=\"password\" id=\"password\"><\/form><div class=\"consequuntur\"><\/div><div class=\"temporibus\"><\/div><div class=\"voluptatem\"><\/div><\/body><\/html>\n","img":"1.png","created_at":"2020-09-11T14:39:32.000000Z","updated_at":"2020-09-11T14:39:32.000000Z","updated":"11 Sep 2020"},{"id":19,"user_id":20,"category_id":2,"title":"Quaerat voluptas ut sit aut.","slug":"quaerat-voluptas-ut-sit-aut","body":"<html><head><title>Quod odio dolorum ex.<\/title><\/head><body><form action=\"example.net\" method=\"POST\"><label for=\"username\">laudantium<\/label><input type=\"text\" id=\"username\"><label for=\"password\">error<\/label><input type=\"password\" id=\"password\"><\/form><div class=\"nemo\"><\/div><div class=\"ut\"><div id=\"19542\"><\/div><div id=\"81428\"><\/div><div id=\"39726\"><\/div><div class=\"eius\"><\/div><\/div><div class=\"animi\"><div id=\"77410\"><b>Vel reiciendis.<\/b><span>Id accusamus animi est qui aut et nesciunt repudiandae et facilis perferendis.<\/span><table><thead><tr><th>Pariatur qui.<\/th><th>Sit voluptatibus.<\/th><th>Molestiae molestiae natus id quo.<\/th><th>Voluptates placeat.<\/th><\/tr><\/thead><tbody><tr><td>Dignissimos eum sit voluptates.<\/td><td>Eos soluta sint quia dolores natus et voluptas consequatur et facere dolor dolorem.<\/td><td>Est eaque dolore voluptas consequuntur.<\/td><td>Saepe minima repudiandae laudantium rerum doloribus.<\/td><\/tr><tr><td>Iure quibusdam odit sunt et cum illo non.<\/td><td>Ut et quis fuga omnis ut ea quo est.<\/td><td>Totam neque corporis laborum esse quos asperiores est non impedit.<\/td><td>Et autem recusandae sit et consequatur at est commodi blanditiis veniam.<\/td><\/tr><tr><td>Architecto ex laboriosam cumque.<\/td><td>Et sit sunt.<\/td><td>Voluptas et aliquam ea quis.<\/td><td>Et magni.<\/td><\/tr><tr><td>Cum molestiae qui fugiat vel facere.<\/td><td>Facilis iure non quae aut officiis.<\/td><td>Ut fuga assumenda fuga eaque.<\/td><td>Praesentium veniam.<\/td><\/tr><tr><td>Incidunt temporibus.<\/td><td>Qui sit cupiditate aut totam similique asperiores eaque odio officiis voluptatum.<\/td><td>Tempora qui dicta id laudantium et amet.<\/td><td>Asperiores accusantium corrupti placeat autem.<\/td><\/tr><\/tbody><\/table><\/div><div id=\"17992\"><\/div><div class=\"sit\"><\/div><div id=\"88908\"><ul><li>Sunt doloremque ad.<\/li><li>Aut voluptas corrupti.<\/li><li>Et earum.<\/li><\/ul><a href=\"example.org\">Labore autem amet tempora harum enim et est maiores deleniti.<\/a><h1>Occaecati nesciunt occaecati quia saepe quia.<\/h1><\/div><\/div><div id=\"58510\"><ul><li>Suscipit.<\/li><li>Voluptatem placeat rerum nostrum cumque.<\/li><li>Vitae voluptatem.<\/li><li>At incidunt.<\/li><li>Necessitatibus quae quia iusto quidem.<\/li><li>Neque harum distinctio.<\/li><li>Est enim omnis.<\/li><\/ul><\/div><\/body><\/html>\n","img":"2.jpg","created_at":"2020-09-11T14:39:32.000000Z","updated_at":"2020-09-11T14:39:32.000000Z","updated":"11 Sep 2020"},{"id":20,"user_id":21,"category_id":2,"title":"Enim asperiores enim quam voluptas natus.","slug":"enim-asperiores-enim-quam-voluptas-natus","body":"<html><head><title>Magnam rem provident est rerum sit est eum quia excepturi fugit.<\/title><\/head><body><form action=\"example.org\" method=\"POST\"><label for=\"username\">dicta<\/label><input type=\"text\" id=\"username\"><label for=\"password\">minus<\/label><input type=\"password\" id=\"password\"><\/form><div class=\"numquam\"><span>Voluptas et omnis doloremque iusto vel quos quia sed ut.<\/span><span>Et aliquid ullam quia minus ut error.<\/span><h2>Et nulla impedit sunt molestiae quia nisi iusto ipsa.<\/h2><\/div><div class=\"corporis\"><div id=\"48985\"><\/div><\/div><div id=\"5932\"><\/div><div class=\"veniam\"><h2>A est iure aliquid officiis excepturi qui labore.<\/h2><\/div><\/body><\/html>\n","img":"1.png","created_at":"2020-09-11T14:39:32.000000Z","updated_at":"2020-09-11T14:39:32.000000Z","updated":"11 Sep 2020"},{"id":21,"user_id":22,"category_id":2,"title":"Architecto nobis molestiae dolores fugiat.","slug":"architecto-nobis-molestiae-dolores-fugiat","body":"<html><head><title>Et in.<\/title><\/head><body><form action=\"example.net\" method=\"POST\"><label for=\"username\">eum<\/label><input type=\"text\" id=\"username\"><label for=\"password\">nostrum<\/label><input type=\"password\" id=\"password\"><\/form><div class=\"laudantium\"><\/div><div class=\"qui\"><\/div><\/body><\/html>\n","img":"5.png","created_at":"2020-09-11T14:39:32.000000Z","updated_at":"2020-09-11T14:39:32.000000Z","updated":"11 Sep 2020"},{"id":22,"user_id":23,"category_id":2,"title":"Quae libero nisi rerum corporis ut et.","slug":"quae-libero-nisi-rerum-corporis-ut-et","body":"<html><head><title>Dolor aliquid ratione quod suscipit omnis et impedit.<\/title><\/head><body><form action=\"example.org\" method=\"POST\"><label for=\"username\">impedit<\/label><input type=\"text\" id=\"username\"><label for=\"password\">quisquam<\/label><input type=\"password\" id=\"password\"><\/form><div class=\"sit\"><span>Esse veniam dolorum qui delectus commodi molestias vel sint ea ullam vero voluptatem.<\/span><i>Qui ullam perspiciatis maxime.<\/i><ul><li>Placeat amet rerum saepe.<\/li><\/ul>Nulla quia quos magnam vitae voluptatem odio.<\/div><div id=\"83013\"><\/div><div class=\"in\"><\/div><div id=\"53690\"><span>Quam.<\/span><b>Aut eligendi sed voluptatem omnis vel culpa sit voluptatem.<\/b><span>Maxime velit fuga.<\/span><a href=\"example.com\">Libero provident.<\/a><\/div><\/body><\/html>\n","img":"1.png","created_at":"2020-09-11T14:39:32.000000Z","updated_at":"2020-09-11T14:39:32.000000Z","updated":"11 Sep 2020"},{"id":23,"user_id":24,"category_id":2,"title":"Sint autem ab consectetur fugiat dolorem in eum ut.","slug":"sint-autem-ab-consectetur-fugiat-dolorem-in-eum-ut","body":"<html><head><title>Minus necessitatibus voluptatem.<\/title><\/head><body><form action=\"example.org\" method=\"POST\"><label for=\"username\">voluptas<\/label><input type=\"text\" id=\"username\"><label for=\"password\">fugiat<\/label><input type=\"password\" id=\"password\"><\/form><div id=\"10269\"><div class=\"sunt\"><h3>Dolorem qui rerum sed et aut voluptatem.<\/h3><\/div><div id=\"52216\"><\/div><div id=\"33586\"><\/div><\/div><\/body><\/html>\n","img":"2.jpg","created_at":"2020-09-11T14:39:32.000000Z","updated_at":"2020-09-11T14:39:32.000000Z","updated":"11 Sep 2020"},{"id":24,"user_id":25,"category_id":2,"title":"Fuga veniam excepturi officiis id.","slug":"fuga-veniam-excepturi-officiis-id","body":"<html><head><title>Sint eaque voluptatibus qui molestiae doloribus.<\/title><\/head><body><form action=\"example.net\" method=\"POST\"><label for=\"username\">dicta<\/label><input type=\"text\" id=\"username\"><label for=\"password\">est<\/label><input type=\"password\" id=\"password\"><\/form><div id=\"97610\"><\/div><div id=\"1025\"><ul><li>Cupiditate at.<\/li><li>Et distinctio sed.<\/li><li>Cupiditate tempore deserunt quibusdam nesciunt.<\/li><li>Maxime ex eligendi rerum.<\/li><li>Ipsum veritatis.<\/li><li>Expedita suscipit ullam fuga.<\/li><li>Rerum suscipit molestiae quisquam.<\/li><\/ul><\/div><\/body><\/html>\n","img":"1.png","created_at":"2020-09-11T14:39:32.000000Z","updated_at":"2020-09-11T14:39:32.000000Z","updated":"11 Sep 2020"},{"id":25,"user_id":26,"category_id":2,"title":"Dolorem ab atque enim consectetur impedit.","slug":"dolorem-ab-atque-enim-consectetur-impedit","body":"<html><head><title>Amet dignissimos sed fugit eos unde.<\/title><\/head><body><form action=\"example.net\" method=\"POST\"><label for=\"username\">sit<\/label><input type=\"text\" id=\"username\"><label for=\"password\">eaque<\/label><input type=\"password\" id=\"password\"><\/form><div class=\"aliquam\"><\/div><div class=\"at\"><p>Nemo corporis et consequatur fuga.<\/p><\/div><div class=\"veritatis\"><i>Eius eligendi.<\/i><\/div><\/body><\/html>\n","img":"5.png","created_at":"2020-09-11T14:39:32.000000Z","updated_at":"2020-09-11T14:39:32.000000Z","updated":"11 Sep 2020"},{"id":26,"user_id":27,"category_id":2,"title":"Velit quas magnam sunt earum molestias quod.","slug":"velit-quas-magnam-sunt-earum-molestias-quod","body":"<html><head><title>Nulla aut eius aut.<\/title><\/head><body><form action=\"example.com\" method=\"POST\"><label for=\"username\">et<\/label><input type=\"text\" id=\"username\"><label for=\"password\">perferendis<\/label><input type=\"password\" id=\"password\"><\/form><div id=\"35699\"><\/div><div id=\"1183\"><div id=\"36751\">Debitis voluptate magnam minus delectus molestiae.<\/div><\/div><div class=\"dolor\"><\/div><div id=\"60468\"><div class=\"porro\"><\/div><\/div><\/body><\/html>\n","img":"4.jpg","created_at":"2020-09-11T14:39:32.000000Z","updated_at":"2020-09-11T14:39:32.000000Z","updated":"11 Sep 2020"},{"id":27,"user_id":28,"category_id":2,"title":"Eos inventore consequatur at omnis.","slug":"eos-inventore-consequatur-at-omnis","body":"<html><head><title>Nesciunt repudiandae doloribus ut ad eum.<\/title><\/head><body><form action=\"example.net\" method=\"POST\"><label for=\"username\">laborum<\/label><input type=\"text\" id=\"username\"><label for=\"password\">laudantium<\/label><input type=\"password\" id=\"password\"><\/form><div id=\"92817\"><\/div><\/body><\/html>\n","img":"5.png","created_at":"2020-09-11T14:39:32.000000Z","updated_at":"2020-09-11T14:39:32.000000Z","updated":"11 Sep 2020"},{"id":28,"user_id":29,"category_id":2,"title":"Laborum repellat culpa eos deleniti temporibus dignissimos.","slug":"laborum-repellat-culpa-eos-deleniti-temporibus-dignissimos","body":"<html><head><title>Iste laboriosam voluptate veritatis quod omnis at.<\/title><\/head><body><form action=\"example.com\" method=\"POST\"><label for=\"username\">sequi<\/label><input type=\"text\" id=\"username\"><label for=\"password\">laudantium<\/label><input type=\"password\" id=\"password\"><\/form><div id=\"38991\"><\/div><\/body><\/html>\n","img":"3.jpg","created_at":"2020-09-11T14:39:32.000000Z","updated_at":"2020-09-11T14:39:32.000000Z","updated":"11 Sep 2020"},{"id":29,"user_id":30,"category_id":1,"title":"Aspernatur aliquid odit debitis et ut ea.","slug":"aspernatur-aliquid-odit-debitis-et-ut-ea","body":"<html><head><title>Quidem alias laudantium reprehenderit quia labore qui praesentium non maiores quas sed.<\/title><\/head><body><form action=\"example.net\" method=\"POST\"><label for=\"username\">et<\/label><input type=\"text\" id=\"username\"><label for=\"password\">quas<\/label><input type=\"password\" id=\"password\"><\/form><div id=\"83463\"><\/div><div class=\"assumenda\">Harum voluptas.<ul><li>Qui aut sed.<\/li><li>Et optio assumenda sint id.<\/li><li>Ea excepturi.<\/li><li>Fugiat tempora qui.<\/li><li>Labore voluptas excepturi.<\/li><li>Et laboriosam.<\/li><li>Optio qui libero possimus aut.<\/li><li>Quibusdam aut quidem.<\/li><li>A officia in architecto voluptatum.<\/li><li>Est laboriosam.<\/li><\/ul><h1>Corrupti numquam officia error.<\/h1><b>Quia nam consequatur est molestiae distinctio.<\/b><\/div><div id=\"17619\"><\/div><div class=\"architecto\"><\/div><\/body><\/html>\n","img":"5.png","created_at":"2020-09-11T14:39:49.000000Z","updated_at":"2020-09-11T14:39:49.000000Z","updated":"11 Sep 2020"},{"id":30,"user_id":31,"category_id":1,"title":"Hic laboriosam molestias assumenda consectetur.","slug":"hic-laboriosam-molestias-assumenda-consectetur","body":"<html><head><title>Placeat ut hic dolorum natus aut voluptas.<\/title><\/head><body><form action=\"example.com\" method=\"POST\"><label for=\"username\">explicabo<\/label><input type=\"text\" id=\"username\"><label for=\"password\">in<\/label><input type=\"password\" id=\"password\"><\/form><div id=\"60511\"><\/div><div class=\"et\"><\/div><div class=\"corrupti\"><\/div><div id=\"64391\"><\/div><\/body><\/html>\n","img":"1.png","created_at":"2020-09-11T14:39:49.000000Z","updated_at":"2020-09-11T14:39:49.000000Z","updated":"11 Sep 2020"}],"first_page_url":"http:\/\/localhost?page=1","from":16,"last_page":4,"last_page_url":"http:\/\/localhost?page=4","next_page_url":"http:\/\/localhost?page=3","path":"http:\/\/localhost","per_page":15,"prev_page_url":"http:\/\/localhost?page=1","to":30,"total":51}