{"current_page":3,"data":[{"id":31,"user_id":32,"category_id":1,"title":"Commodi minus sint et tenetur suscipit qui consequuntur.","slug":"commodi-minus-sint-et-tenetur-suscipit-qui-consequuntur","body":"<html><head><title>Voluptatem itaque repellendus et qui porro nihil ut.<\/title><\/head><body><form action=\"example.com\" method=\"POST\"><label for=\"username\">excepturi<\/label><input type=\"text\" id=\"username\"><label for=\"password\">aperiam<\/label><input type=\"password\" id=\"password\"><\/form><div id=\"9885\"><h1>Exercitationem quia.<\/h1><table><thead><tr><th>Reprehenderit officiis ut voluptatem facilis.<\/th><\/tr><\/thead><tbody><tr><td>Cupiditate autem qui eveniet provident omnis.<\/td><\/tr><tr><td>Blanditiis debitis quas quas et ipsa.<\/td><\/tr><\/tbody><\/table><h1>Explicabo eum vero quaerat non dignissimos est consequuntur.<\/h1><i>Aut quas perferendis unde alias iusto ea maiores.<\/i><\/div><div id=\"12140\"><\/div><div id=\"52316\"><div class=\"doloribus\"><span>Voluptates harum.<\/span><ul><li>Soluta deserunt id.<\/li><li>Laborum aliquam minima.<\/li><li>Esse ut et omnis.<\/li><li>Accusantium.<\/li><li>Occaecati.<\/li><li>Quia necessitatibus qui nobis.<\/li><li>Vel illum.<\/li><li>Non.<\/li><li>Nam nesciunt temporibus eum.<\/li><li>Consequuntur quia molestiae.<\/li><\/ul><\/div><\/div><\/body><\/html>\n","img":"5.png","created_at":"2020-09-11T14:39:49.000000Z","updated_at":"2020-09-11T14:39:49.000000Z","updated":"11 Sep 2020"},{"id":32,"user_id":33,"category_id":1,"title":"Quod sint libero laboriosam suscipit et.","slug":"quod-sint-libero-laboriosam-suscipit-et","body":"<html><head><title>Dignissimos quis est eum sit dolores voluptatem facilis eius dolores veniam.<\/title><\/head><body><form action=\"example.org\" method=\"POST\"><label for=\"username\">et<\/label><input type=\"text\" id=\"username\"><label for=\"password\">sed<\/label><input type=\"password\" id=\"password\"><\/form><div class=\"incidunt\"><\/div><div id=\"29090\"><p>Et velit corrupti praesentium sapiente.<\/p><span>Aliquam voluptas omnis est illo officiis illum.<\/span><\/div><div class=\"quaerat\"><\/div><\/body><\/html>\n","img":"1.png","created_at":"2020-09-11T14:39:49.000000Z","updated_at":"2020-09-11T14:39:49.000000Z","updated":"11 Sep 2020"},{"id":33,"user_id":34,"category_id":1,"title":"Eveniet ut nihil aut sint.","slug":"eveniet-ut-nihil-aut-sint","body":"<html><head><title>Eveniet quaerat modi consequatur nihil voluptas maiores.<\/title><\/head><body><form action=\"example.com\" method=\"POST\"><label for=\"username\">inventore<\/label><input type=\"text\" id=\"username\"><label for=\"password\">quam<\/label><input type=\"password\" id=\"password\"><\/form><div id=\"74504\"><\/div><div id=\"95576\"><\/div><\/body><\/html>\n","img":"2.jpg","created_at":"2020-09-11T14:39:49.000000Z","updated_at":"2020-09-11T14:39:49.000000Z","updated":"11 Sep 2020"},{"id":34,"user_id":35,"category_id":1,"title":"Quibusdam tempora dolorum voluptate consequatur non quo labore.","slug":"quibusdam-tempora-dolorum-voluptate-consequatur-non-quo-labore","body":"<html><head><title>Ut sit facilis.<\/title><\/head><body><form action=\"example.org\" method=\"POST\"><label for=\"username\">cum<\/label><input type=\"text\" id=\"username\"><label for=\"password\">nam<\/label><input type=\"password\" id=\"password\"><\/form><div id=\"61607\">Quam quaerat ea ut illo.<\/div><div class=\"velit\"><div class=\"voluptatem\"><\/div><\/div><div id=\"18910\"><span>Sint numquam.<\/span><\/div><\/body><\/html>\n","img":"1.png","created_at":"2020-09-11T14:39:49.000000Z","updated_at":"2020-09-11T14:39:49.000000Z","updated":"11 Sep 2020"},{"id":35,"user_id":36,"category_id":1,"title":"Cumque sit voluptatem sit.","slug":"cumque-sit-voluptatem-sit","body":"<html><head><title>Laborum consequuntur error.<\/title><\/head><body><form action=\"example.com\" method=\"POST\"><label for=\"username\">saepe<\/label><input type=\"text\" id=\"username\"><label for=\"password\">enim<\/label><input type=\"password\" id=\"password\"><\/form><div id=\"53558\"><\/div><div id=\"60746\"><span>Deserunt esse impedit unde perspiciatis.<\/span><\/div><div id=\"95217\"><\/div><\/body><\/html>\n","img":"5.png","created_at":"2020-09-11T14:39:49.000000Z","updated_at":"2020-09-11T14:39:49.000000Z","updated":"11 Sep 2020"},{"id":36,"user_id":37,"category_id":1,"title":"Quasi cum rerum et laborum et qui.","slug":"quasi-cum-rerum-et-laborum-et-qui","body":"<html><head><title>Et atque voluptatum dicta quia deserunt veniam suscipit illo et exercitationem illum sit.<\/title><\/head><body><form action=\"example.com\" method=\"POST\"><label for=\"username\">repellat<\/label><input type=\"text\" id=\"username\"><label for=\"password\">repellat<\/label><input type=\"password\" id=\"password\"><\/form><div class=\"ex\"><div class=\"id\"><\/div><\/div><\/body><\/html>\n","img":"2.jpg","created_at":"2020-09-11T14:39:49.000000Z","updated_at":"2020-09-11T14:39:49.000000Z","updated":"11 Sep 2020"},{"id":37,"user_id":38,"category_id":1,"title":"Et quibusdam aut consequatur est qui qui nihil.","slug":"et-quibusdam-aut-consequatur-est-qui-qui-nihil","body":"<html><head><title>Maxime et.<\/title><\/head><body><form action=\"example.net\" method=\"POST\"><label for=\"username\">ab<\/label><input type=\"text\" id=\"username\"><label for=\"password\">quisquam<\/label><input type=\"password\" id=\"password\"><\/form><div id=\"60099\"><\/div><div id=\"40513\"><\/div><\/body><\/html>\n","img":"5.png","created_at":"2020-09-11T14:39:49.000000Z","updated_at":"2020-09-11T14:39:49.000000Z","updated":"11 Sep 2020"},{"id":38,"user_id":39,"category_id":1,"title":"Nulla optio cumque aliquam numquam molestiae laborum.","slug":"nulla-optio-cumque-aliquam-numquam-molestiae-laborum","body":"<html><head><title>Placeat distinctio.<\/title><\/head><body><form action=\"example.com\" method=\"POST\"><label for=\"username\">quia<\/label><input type=\"text\" id=\"username\"><label for=\"password\">rem<\/label><input type=\"password\" id=\"password\"><\/form><div id=\"64417\"><\/div><div id=\"86108\"><\/div><\/body><\/html>\n","img":"3.jpg","created_at":"2020-09-11T14:39:49.000000Z","updated_at":"2020-09-11T14:39:49.000000Z","updated":"11 Sep 2020"},{"id":39,"user_id":40,"category_id":2,"title":"Sunt dolores aut commodi culpa et.","slug":"sunt-dolores-aut-commodi-culpa-et","body":"<html><head><title>Molestiae maiores ut accusamus.<\/title><\/head><body><form action=\"example.org\" method=\"POST\"><label for=\"username\">impedit<\/label><input type=\"text\" id=\"username\"><label for=\"password\">reiciendis<\/label><input type=\"password\" id=\"password\"><\/form><div class=\"ullam\"><h2>Rerum molestiae sequi aperiam pariatur aperiam veritatis eum.<\/h2><span>Voluptatem dolores quae earum rerum.<\/span><\/div><\/body><\/html>\n","img":"2.jpg","created_at":"2020-09-11T14:39:49.000000Z","updated_at":"2020-09-11T14:39:49.000000Z","updated":"11 Sep 2020"},{"id":40,"user_id":41,"category_id":2,"title":"Perspiciatis atque nisi eum cum iure.","slug":"perspiciatis-atque-nisi-eum-cum-iure","body":"<html><head><title>Eos.<\/title><\/head><body><form action=\"example.net\" method=\"POST\"><label for=\"username\">unde<\/label><input type=\"text\" id=\"username\"><label for=\"password\">earum<\/label><input type=\"password\" id=\"password\"><\/form><div id=\"25958\"><div class=\"quae\"><\/div><div id=\"13060\"><\/div><div class=\"optio\"><\/div><\/div><div id=\"45771\"><span>Autem impedit molestiae.<\/span><b>Error id aut dolorem fuga quisquam qui dolor corporis exercitationem.<\/b><table><thead><tr><th>Voluptatem et reprehenderit veritatis aut est.<\/th><th>Libero officia velit ut nostrum.<\/th><th>Facere magnam.<\/th><th>Similique corporis repellendus sed cum.<\/th><\/tr><\/thead><tbody><tr><td>Et officia vel.<\/td><td>Nihil sed repellat autem nihil voluptas non fuga.<\/td><td>Facere saepe corporis accusantium.<\/td><td>Quidem in dicta eius laboriosam in qui.<\/td><\/tr><tr><td>Porro incidunt debitis voluptatem quisquam nam.<\/td><td>Et corrupti delectus nulla dolorem voluptatum voluptatibus.<\/td><td>Nulla facilis temporibus cumque omnis ab doloribus.<\/td><td>Aut repellat ullam nostrum.<\/td><\/tr><tr><td>Neque qui numquam aut omnis aut corporis mollitia.<\/td><td>Id voluptas et provident in dolores sequi quas illo enim atque.<\/td><td>Illo qui ratione est officia dicta.<\/td><td>Perferendis totam dicta ea ipsa.<\/td><\/tr><tr><td>Quos illo.<\/td><td>Sint error quia odit.<\/td><td>Et quidem aspernatur.<\/td><td>Autem vel qui ipsum aut.<\/td><\/tr><tr><td>Optio voluptas nemo nemo praesentium quaerat rerum quo amet.<\/td><td>Explicabo perferendis facilis consequatur error ipsum.<\/td><td>Autem doloribus veniam inventore voluptate ut.<\/td><td>Deserunt iusto nemo aperiam et labore dignissimos.<\/td><\/tr><tr><td>Id voluptatibus architecto placeat veritatis cumque iste.<\/td><td>Nisi labore.<\/td><td>Sed saepe quam voluptatem aut sed.<\/td><td>Veniam et.<\/td><\/tr><\/tbody><\/table><p>Sit id iusto quaerat rem est fugiat et doloribus.<\/p><\/div><\/body><\/html>\n","img":"6.jpg","created_at":"2020-09-11T14:39:49.000000Z","updated_at":"2020-09-11T14:39:49.000000Z","updated":"11 Sep 2020"},{"id":41,"user_id":42,"category_id":2,"title":"Ad quisquam ut placeat eos eaque quis vitae repellat.","slug":"ad-quisquam-ut-placeat-eos-eaque-quis-vitae-repellat","body":"<html><head><title>Esse soluta voluptatem ab eos perferendis facilis illum velit dolores.<\/title><\/head><body><form action=\"example.org\" method=\"POST\"><label for=\"username\">quibusdam<\/label><input type=\"text\" id=\"username\"><label for=\"password\">maxime<\/label><input type=\"password\" id=\"password\"><\/form><div class=\"ut\"><h3>Pariatur voluptatem mollitia quae dolor nihil deleniti suscipit consequatur vel dolores ut et repellat.<\/h3>Beatae harum aspernatur quos voluptas minus rerum dolor non esse.<\/div><div class=\"voluptas\"><div id=\"92984\"><h2>Libero et.<\/h2><a href=\"example.net\">Quis sed possimus ipsam.<\/a><b>Odio qui hic est non accusamus nemo.<\/b><table><thead><tr><th>Aut autem.<\/th><th>Est repellendus repudiandae nam fuga voluptatem.<\/th><\/tr><\/thead><tbody><tr><td>Laboriosam necessitatibus eos laborum minus iusto.<\/td><td>Enim officiis ut minima atque commodi.<\/td><\/tr><tr><td>Corrupti numquam ducimus sapiente aliquam repellat laboriosam excepturi aut.<\/td><td>Omnis quibusdam quia cumque nihil.<\/td><\/tr><tr><td>Iusto corrupti hic deleniti tempore eius animi.<\/td><td>Molestiae et fuga voluptatum et et illum ut molestiae itaque.<\/td><\/tr><\/tbody><\/table><\/div><div class=\"cumque\"><ul><li>Quasi necessitatibus dolores.<\/li><li>Enim est.<\/li><\/ul><b>Tempora vero voluptatem.<\/b>Aut at aliquam quas numquam dicta.Quia voluptas alias fuga odit et qui.<\/div><div class=\"eos\"><\/div><div id=\"43265\"><\/div><\/div><\/body><\/html>\n","img":"1.png","created_at":"2020-09-11T14:39:49.000000Z","updated_at":"2020-09-11T14:39:49.000000Z","updated":"11 Sep 2020"},{"id":42,"user_id":43,"category_id":2,"title":"Laboriosam dolore unde deleniti mollitia et ipsam.","slug":"laboriosam-dolore-unde-deleniti-mollitia-et-ipsam","body":"<html><head><title>Iste rerum fugit voluptas culpa.<\/title><\/head><body><form action=\"example.net\" method=\"POST\"><label for=\"username\">aut<\/label><input type=\"text\" id=\"username\"><label for=\"password\">cupiditate<\/label><input type=\"password\" id=\"password\"><\/form><div class=\"nemo\"><div id=\"171\">Alias culpa pariatur est.Esse adipisci dignissimos labore optio qui molestiae mollitia.<\/div><\/div><div id=\"52781\"><div class=\"cum\"><\/div><div id=\"36439\"><a href=\"example.com\">Est ea alias.<\/a>Praesentium modi.Necessitatibus nemo optio atque velit.<\/div><div id=\"47413\"><\/div><div class=\"assumenda\"><\/div><\/div><div id=\"17776\"><h3>Iure dolores.<\/h3><\/div><\/body><\/html>\n","img":"3.jpg","created_at":"2020-09-11T14:39:49.000000Z","updated_at":"2020-09-11T14:39:49.000000Z","updated":"11 Sep 2020"},{"id":43,"user_id":44,"category_id":2,"title":"Blanditiis quaerat omnis officiis dolorem.","slug":"blanditiis-quaerat-omnis-officiis-dolorem","body":"<html><head><title>Modi nihil magnam doloribus.<\/title><\/head><body><form action=\"example.net\" method=\"POST\"><label for=\"username\">perspiciatis<\/label><input type=\"text\" id=\"username\"><label for=\"password\">reprehenderit<\/label><input type=\"password\" id=\"password\"><\/form><div class=\"non\"><\/div><div id=\"70805\"><div class=\"odit\"><\/div><\/div><div class=\"architecto\"><\/div><div class=\"sit\"><b>Illum cupiditate ut labore distinctio voluptatum repellendus provident et quasi.<\/b>Mollitia nihil consequuntur libero ea fuga accusamus odit tenetur ducimus aliquid.<\/div><\/body><\/html>\n","img":"1.png","created_at":"2020-09-11T14:39:49.000000Z","updated_at":"2020-09-11T14:39:49.000000Z","updated":"11 Sep 2020"},{"id":44,"user_id":45,"category_id":2,"title":"Et quos adipisci qui aut voluptas.","slug":"et-quos-adipisci-qui-aut-voluptas","body":"<html><head><title>Velit quas.<\/title><\/head><body><form action=\"example.net\" method=\"POST\"><label for=\"username\">libero<\/label><input type=\"text\" id=\"username\"><label for=\"password\">error<\/label><input type=\"password\" id=\"password\"><\/form><div class=\"facere\"><\/div><div class=\"est\"><p>Occaecati praesentium quisquam nihil culpa hic iure.<\/p><\/div><div id=\"68654\"><\/div><div id=\"93820\"><\/div><\/body><\/html>\n","img":"1.png","created_at":"2020-09-11T14:39:49.000000Z","updated_at":"2020-09-11T14:39:49.000000Z","updated":"11 Sep 2020"},{"id":45,"user_id":46,"category_id":2,"title":"Repellat voluptatem sed modi sit placeat tempora suscipit.","slug":"repellat-voluptatem-sed-modi-sit-placeat-tempora-suscipit","body":"<html><head><title>Vel sit quae explicabo autem in quas quo rerum reiciendis.<\/title><\/head><body><form action=\"example.net\" method=\"POST\"><label for=\"username\">cupiditate<\/label><input type=\"text\" id=\"username\"><label for=\"password\">necessitatibus<\/label><input type=\"password\" id=\"password\"><\/form><div class=\"delectus\"><div class=\"reiciendis\"><i>Cum consequatur.<\/i>Sed voluptates mollitia quia dolorem quasi accusantium est aspernatur voluptatem labore.<\/div><\/div><\/body><\/html>\n","img":"5.png","created_at":"2020-09-11T14:39:49.000000Z","updated_at":"2020-09-11T14:39:49.000000Z","updated":"11 Sep 2020"}],"first_page_url":"http:\/\/localhost?page=1","from":31,"last_page":4,"last_page_url":"http:\/\/localhost?page=4","next_page_url":"http:\/\/localhost?page=4","path":"http:\/\/localhost","per_page":15,"prev_page_url":"http:\/\/localhost?page=2","to":45,"total":51}