{"current_page":4,"data":[{"id":46,"user_id":47,"category_id":2,"title":"Ut dignissimos deleniti deserunt.","slug":"ut-dignissimos-deleniti-deserunt","body":"<html><head><title>Maiores dolor.<\/title><\/head><body><form action=\"example.org\" method=\"POST\"><label for=\"username\">enim<\/label><input type=\"text\" id=\"username\"><label for=\"password\">rerum<\/label><input type=\"password\" id=\"password\"><\/form><div class=\"cumque\"><div class=\"velit\"><\/div><div id=\"40305\"><span>Vel qui eum autem itaque fuga possimus eligendi.<\/span><\/div><\/div><div id=\"47525\"><div class=\"soluta\">Laudantium sit ut libero.<b>Dignissimos distinctio maxime et.<\/b><span>Est aut alias.<\/span><p>Aliquam aliquid similique dolorem.<\/p><\/div><\/div><div id=\"55616\"><div id=\"17005\"><p>Sed id cumque voluptatem qui nihil vel.<\/p><span>Distinctio.<\/span><ul><li>Sequi rerum enim.<\/li><li>Ab sunt fugit molestias quidem.<\/li><li>Impedit optio quisquam dolores.<\/li><li>Illo.<\/li><\/ul><\/div><div class=\"tempore\"><\/div><div id=\"48731\"><\/div><\/div><div id=\"73697\"><a href=\"example.net\">Aut sint quam quae dicta porro qui non et id et.<\/a><a href=\"example.net\">Dolores corporis omnis non.<\/a><span>Modi.<\/span><\/div><\/body><\/html>\n","img":"2.jpg","created_at":"2020-09-11T14:39:49.000000Z","updated_at":"2020-09-11T14:39:49.000000Z","updated":"11 Sep 2020"},{"id":47,"user_id":48,"category_id":2,"title":"Placeat explicabo dolore eum ducimus eum ea molestiae.","slug":"placeat-explicabo-dolore-eum-ducimus-eum-ea-molestiae","body":"<html><head><title>Voluptates eos.<\/title><\/head><body><form action=\"example.org\" method=\"POST\"><label for=\"username\">et<\/label><input type=\"text\" id=\"username\"><label for=\"password\">qui<\/label><input type=\"password\" id=\"password\"><\/form><div id=\"1174\"><span>Voluptatem sunt eligendi atque rerum dolores.<\/span><b>Laudantium error magni earum adipisci at et dolorum voluptatem ut.<\/b><\/div><div id=\"87757\"><\/div><\/body><\/html>\n","img":"6.jpg","created_at":"2020-09-11T14:39:49.000000Z","updated_at":"2020-09-11T14:39:49.000000Z","updated":"11 Sep 2020"},{"id":48,"user_id":49,"category_id":2,"title":"Molestias aut nisi quis.","slug":"molestias-aut-nisi-quis","body":"<html><head><title>Odio quisquam sunt animi.<\/title><\/head><body><form action=\"example.net\" method=\"POST\"><label for=\"username\">debitis<\/label><input type=\"text\" id=\"username\"><label for=\"password\">et<\/label><input type=\"password\" id=\"password\"><\/form><div class=\"sed\"><\/div><div class=\"suscipit\"><\/div><div class=\"deleniti\"><span>Magnam labore esse dolorem quia laudantium quia iusto atque.<\/span><\/div><div id=\"52927\"><div id=\"76688\">Officiis ullam molestiae qui blanditiis soluta vel consequatur.<p>Voluptas est.<\/p><table><thead><tr><th>Culpa magni in magni.<\/th><th>Voluptas amet quia illum qui.<\/th><th>Nihil animi.<\/th><th>Nihil omnis nam.<\/th><th>Et voluptatem exercitationem.<\/th><\/tr><\/thead><tbody><tr><td>Minima aut alias voluptatibus ullam facere ea tenetur.<\/td><td>Consequuntur commodi ea quisquam occaecati quis neque.<\/td><td>Aliquid quia quibusdam.<\/td><td>Nam ad praesentium voluptatem perspiciatis fuga.<\/td><td>Dignissimos nihil consectetur rem asperiores neque autem ut.<\/td><\/tr><tr><td>Autem excepturi quo.<\/td><td>Ipsa voluptatem fuga aut et et et.<\/td><td>Et atque quam eum quos voluptatem.<\/td><td>Et dolorem magnam doloribus.<\/td><td>Fugit et dolores maiores pariatur aut ea vitae molestiae.<\/td><\/tr><tr><td>Quod ad sunt ducimus ipsa ut.<\/td><td>Numquam quia dolores corporis minima.<\/td><td>Sequi ipsa distinctio excepturi.<\/td><td>Eos voluptates debitis quis dolorum.<\/td><td>Consequatur.<\/td><\/tr><tr><td>Asperiores aliquam incidunt labore dolores praesentium nihil.<\/td><td>Aut doloribus autem.<\/td><td>Dolores accusantium inventore.<\/td><td>Veritatis dolor mollitia corporis excepturi expedita accusamus.<\/td><td>Nostrum sed ut explicabo.<\/td><\/tr><tr><td>Exercitationem est est.<\/td><td>Et veritatis consequuntur et voluptatem non.<\/td><td>Doloribus soluta adipisci autem.<\/td><td>Rerum consequatur sit reprehenderit unde.<\/td><td>Consequatur aut et quo iure id possimus aspernatur inventore.<\/td><\/tr><tr><td>Et.<\/td><td>Quod eligendi quia.<\/td><td>Explicabo quo autem.<\/td><td>Ab eligendi soluta placeat tempora unde vel odio et sapiente.<\/td><td>Nam id neque tempora ad.<\/td><\/tr><\/tbody><\/table>Sed molestias.<\/div><div class=\"atque\"><b>Hic eligendi sint fuga vel eum optio maxime autem ut officia.<\/b><span>Iste quo voluptatum nemo.<\/span><span>Veniam est corrupti aperiam facilis in non.<\/span><p>Iusto velit qui sunt recusandae voluptatibus itaque.<\/p><\/div><\/div><\/body><\/html>\n","img":"4.jpg","created_at":"2020-09-11T14:39:49.000000Z","updated_at":"2020-09-11T14:39:49.000000Z","updated":"11 Sep 2020"},{"id":49,"user_id":50,"category_id":2,"title":"Ad id in est.","slug":"ad-id-in-est","body":"<html><head><title>Facilis minus ut soluta sit.<\/title><\/head><body><form action=\"example.org\" method=\"POST\"><label for=\"username\">ut<\/label><input type=\"text\" id=\"username\"><label for=\"password\">eos<\/label><input type=\"password\" id=\"password\"><\/form><div class=\"tenetur\"><\/div><div class=\"ullam\"><\/div><\/body><\/html>\n","img":"4.jpg","created_at":"2020-09-11T14:39:49.000000Z","updated_at":"2020-09-11T14:39:49.000000Z","updated":"11 Sep 2020"},{"id":50,"user_id":51,"category_id":2,"title":"Perspiciatis harum aut numquam est.","slug":"perspiciatis-harum-aut-numquam-est","body":"<html><head><title>Autem illo ex id.<\/title><\/head><body><form action=\"example.net\" method=\"POST\"><label for=\"username\">ratione<\/label><input type=\"text\" id=\"username\"><label for=\"password\">pariatur<\/label><input type=\"password\" id=\"password\"><\/form><div id=\"22140\"><\/div><div class=\"et\"><\/div><div class=\"quas\"><\/div><div id=\"14124\"><\/div><\/body><\/html>\n","img":"6.jpg","created_at":"2020-09-11T14:39:49.000000Z","updated_at":"2020-09-11T14:39:49.000000Z","updated":"11 Sep 2020"},{"id":51,"user_id":52,"category_id":2,"title":"Distinctio earum repellendus placeat quam quaerat.","slug":"distinctio-earum-repellendus-placeat-quam-quaerat","body":"<html><head><title>Maiores consequatur dolores est nam ex ullam voluptatem et aut quia doloribus adipisci.<\/title><\/head><body><form action=\"example.net\" method=\"POST\"><label for=\"username\">ut<\/label><input type=\"text\" id=\"username\"><label for=\"password\">et<\/label><input type=\"password\" id=\"password\"><\/form><div id=\"66375\"><div class=\"nam\"><h1>Aut rerum tempora non eligendi non id vero aut iure adipisci eligendi.<\/h1><span>Facilis eius quo aut et.<\/span><i>Sunt fugiat enim omnis.<\/i><\/div><div id=\"77829\"><\/div><\/div><div id=\"1977\"><\/div><div class=\"et\"><\/div><\/body><\/html>\n","img":"5.png","created_at":"2020-09-11T14:39:49.000000Z","updated_at":"2020-09-11T14:39:49.000000Z","updated":"11 Sep 2020"}],"first_page_url":"http:\/\/localhost?page=1","from":46,"last_page":4,"last_page_url":"http:\/\/localhost?page=4","next_page_url":null,"path":"http:\/\/localhost","per_page":15,"prev_page_url":"http:\/\/localhost?page=3","to":51,"total":51}